# Blender v2.75 (sub 0) OBJ File: ''
# www.blender.org
o Suzanne
v 0.437500 0.164062 0.765625
v -0.437500 0.164062 0.765625
v 0.500000 0.093750 0.687500
v -0.500000 0.093750 0.687500
v 0.546875 0.054688 0.578125
v -0.546875 0.054688 0.578125
v 0.351562 -0.023438 0.617188
v -0.351562 -0.023438 0.617188
v 0.351562 0.031250 0.718750
v -0.351562 0.031250 0.718750
v 0.351562 0.132812 0.781250
v -0.351562 0.132812 0.781250
v 0.273438 0.164062 0.796875
v -0.273438 0.164062 0.796875
v 0.203125 0.093750 0.742188
v -0.203125 0.093750 0.742188
v 0.156250 0.054688 0.648438
v -0.156250 0.054688 0.648438
v 0.078125 0.242188 0.656250
v -0.078125 0.242188 0.656250
v 0.140625 0.242188 0.742188
v -0.140625 0.242188 0.742188
v 0.242188 0.242188 0.796875
v -0.242188 0.242188 0.796875
v 0.273438 0.328125 0.796875
v -0.273438 0.328125 0.796875
v 0.203125 0.390625 0.742188
v -0.203125 0.390625 0.742188
v 0.156250 0.437500 0.648438
v -0.156250 0.437500 0.648438
v 0.351562 0.515625 0.617188
v -0.351562 0.515625 0.617188
v 0.351562 0.453125 0.718750
v -0.351562 0.453125 0.718750
v 0.351562 0.359375 0.781250
v -0.351562 0.359375 0.781250
v 0.437500 0.328125 0.765625
v -0.437500 0.328125 0.765625
v 0.500000 0.390625 0.687500
v -0.500000 0.390625 0.687500
v 0.546875 0.437500 0.578125
v -0.546875 0.437500 0.578125
v 0.625000 0.242188 0.562500
v -0.625000 0.242188 0.562500
v 0.562500 0.242188 0.671875
v -0.562500 0.242188 0.671875
v 0.468750 0.242188 0.757812
v -0.468750 0.242188 0.757812
v 0.476562 0.242188 0.773438
v -0.476562 0.242188 0.773438
v 0.445312 0.335938 0.781250
v -0.445312 0.335938 0.781250
v 0.351562 0.375000 0.804688
v -0.351562 0.375000 0.804688
v 0.265625 0.335938 0.820312
v -0.265625 0.335938 0.820312
v 0.226562 0.242188 0.820312
v -0.226562 0.242188 0.820312
v 0.265625 0.156250 0.820312
v -0.265625 0.156250 0.820312
v 0.351562 0.242188 0.828125
v -0.351562 0.242188 0.828125
v 0.351562 0.117188 0.804688
v -0.351562 0.117188 0.804688
v 0.445312 0.156250 0.781250
v -0.445312 0.156250 0.781250
v 0.000000 0.429688 0.742188
v 0.000000 0.351562 0.820312
v 0.000000 -0.679688 0.734375
v 0.000000 -0.320312 0.781250
v 0.000000 -0.187500 0.796875
v 0.000000 -0.773438 0.718750
v 0.000000 0.406250 0.601562
v 0.000000 0.570312 0.570312
v 0.000000 0.898438 -0.546875
v 0.000000 0.562500 -0.851562
v 0.000000 0.070312 -0.828125
v 0.000000 -0.382812 -0.351562
v 0.203125 -0.187500 0.562500
v -0.203125 -0.187500 0.562500
v 0.312500 -0.437500 0.570312
v -0.312500 -0.437500 0.570312
v 0.351562 -0.695312 0.570312
v -0.351562 -0.695312 0.570312
v 0.367188 -0.890625 0.531250
v -0.367188 -0.890625 0.531250
v 0.328125 -0.945312 0.523438
v -0.328125 -0.945312 0.523438
v 0.179688 -0.968750 0.554688
v -0.179688 -0.968750 0.554688
v 0.000000 -0.984375 0.578125
v 0.437500 -0.140625 0.531250
v -0.437500 -0.140625 0.531250
v 0.632812 -0.039062 0.539062
v -0.632812 -0.039062 0.539062
v 0.828125 0.148438 0.445312
v -0.828125 0.148438 0.445312
v 0.859375 0.429688 0.593750
v -0.859375 0.429688 0.593750
v 0.710938 0.484375 0.625000
v -0.710938 0.484375 0.625000
v 0.492188 0.601562 0.687500
v -0.492188 0.601562 0.687500
v 0.320312 0.757812 0.734375
v -0.320312 0.757812 0.734375
v 0.156250 0.718750 0.757812
v -0.156250 0.718750 0.757812
v 0.062500 0.492188 0.750000
v -0.062500 0.492188 0.750000
v 0.164062 0.414062 0.773438
v -0.164062 0.414062 0.773438
v 0.125000 0.304688 0.765625
v -0.125000 0.304688 0.765625
v 0.203125 0.093750 0.742188
v -0.203125 0.093750 0.742188
v 0.375000 0.015625 0.703125
v -0.375000 0.015625 0.703125
v 0.492188 0.062500 0.671875
v -0.492188 0.062500 0.671875
v 0.625000 0.187500 0.648438
v -0.625000 0.187500 0.648438
v 0.640625 0.296875 0.648438
v -0.640625 0.296875 0.648438
v 0.601562 0.375000 0.664062
v -0.601562 0.375000 0.664062
v 0.429688 0.437500 0.718750
v -0.429688 0.437500 0.718750
v 0.250000 0.468750 0.757812
v -0.250000 0.468750 0.757812
v 0.000000 -0.765625 0.734375
v 0.109375 -0.718750 0.734375
v -0.109375 -0.718750 0.734375
v 0.117188 -0.835938 0.710938
v -0.117188 -0.835938 0.710938
v 0.062500 -0.882812 0.695312
v -0.062500 -0.882812 0.695312
v 0.000000 -0.890625 0.687500
v 0.000000 -0.195312 0.750000
v 0.000000 -0.140625 0.742188
v 0.101562 -0.148438 0.742188
v -0.101562 -0.148438 0.742188
v 0.125000 -0.226562 0.750000
v -0.125000 -0.226562 0.750000
v 0.085938 -0.289062 0.742188
v -0.085938 -0.289062 0.742188
v 0.398438 -0.046875 0.671875
v -0.398438 -0.046875 0.671875
v 0.617188 0.054688 0.625000
v -0.617188 0.054688 0.625000
v 0.726562 0.203125 0.601562
v -0.726562 0.203125 0.601562
v 0.742188 0.375000 0.656250
v -0.742188 0.375000 0.656250
v 0.687500 0.414062 0.726562
v -0.687500 0.414062 0.726562
v 0.437500 0.546875 0.796875
v -0.437500 0.546875 0.796875
v 0.312500 0.640625 0.835938
v -0.312500 0.640625 0.835938
v 0.203125 0.617188 0.851562
v -0.203125 0.617188 0.851562
v 0.101562 0.429688 0.843750
v -0.101562 0.429688 0.843750
v 0.125000 -0.101562 0.812500
v -0.125000 -0.101562 0.812500
v 0.210938 -0.445312 0.710938
v -0.210938 -0.445312 0.710938
v 0.250000 -0.703125 0.687500
v -0.250000 -0.703125 0.687500
v 0.265625 -0.820312 0.664062
v -0.265625 -0.820312 0.664062
v 0.234375 -0.914062 0.632812
v -0.234375 -0.914062 0.632812
v 0.164062 -0.929688 0.632812
v -0.164062 -0.929688 0.632812
v 0.000000 -0.945312 0.640625
v 0.000000 0.046875 0.726562
v 0.000000 0.210938 0.765625
v 0.328125 0.476562 0.742188
v -0.328125 0.476562 0.742188
v 0.164062 0.140625 0.750000
v -0.164062 0.140625 0.750000
v 0.132812 0.210938 0.757812
v -0.132812 0.210938 0.757812
v 0.117188 -0.687500 0.734375
v -0.117188 -0.687500 0.734375
v 0.078125 -0.445312 0.750000
v -0.078125 -0.445312 0.750000
v 0.000000 -0.445312 0.750000
v 0.000000 -0.328125 0.742188
v 0.093750 -0.273438 0.781250
v -0.093750 -0.273438 0.781250
v 0.132812 -0.226562 0.796875
v -0.132812 -0.226562 0.796875
v 0.109375 -0.132812 0.781250
v -0.109375 -0.132812 0.781250
v 0.039062 -0.125000 0.781250
v -0.039062 -0.125000 0.781250
v 0.000000 -0.203125 0.828125
v 0.046875 -0.148438 0.812500
v -0.046875 -0.148438 0.812500
v 0.093750 -0.156250 0.812500
v -0.093750 -0.156250 0.812500
v 0.109375 -0.226562 0.828125
v -0.109375 -0.226562 0.828125
v 0.078125 -0.250000 0.804688
v -0.078125 -0.250000 0.804688
v 0.000000 -0.289062 0.804688
v 0.257812 -0.312500 0.554688
v -0.257812 -0.312500 0.554688
v 0.164062 -0.242188 0.710938
v -0.164062 -0.242188 0.710938
v 0.179688 -0.312500 0.710938
v -0.179688 -0.312500 0.710938
v 0.234375 -0.250000 0.554688
v -0.234375 -0.250000 0.554688
v 0.000000 -0.875000 0.687500
v 0.046875 -0.867188 0.687500
v -0.046875 -0.867188 0.687500
v 0.093750 -0.820312 0.710938
v -0.093750 -0.820312 0.710938
v 0.093750 -0.742188 0.726562
v -0.093750 -0.742188 0.726562
v 0.000000 -0.781250 0.656250
v 0.093750 -0.750000 0.664062
v -0.093750 -0.750000 0.664062
v 0.093750 -0.812500 0.640625
v -0.093750 -0.812500 0.640625
v 0.046875 -0.851562 0.632812
v -0.046875 -0.851562 0.632812
v 0.000000 -0.859375 0.632812
v 0.171875 0.218750 0.781250
v -0.171875 0.218750 0.781250
v 0.187500 0.156250 0.773438
v -0.187500 0.156250 0.773438
v 0.335938 0.429688 0.757812
v -0.335938 0.429688 0.757812
v 0.273438 0.421875 0.773438
v -0.273438 0.421875 0.773438
v 0.421875 0.398438 0.773438
v -0.421875 0.398438 0.773438
v 0.562500 0.351562 0.695312
v -0.562500 0.351562 0.695312
v 0.585938 0.289062 0.687500
v -0.585938 0.289062 0.687500
v 0.578125 0.195312 0.679688
v -0.578125 0.195312 0.679688
v 0.476562 0.101562 0.718750
v -0.476562 0.101562 0.718750
v 0.375000 0.062500 0.742188
v -0.375000 0.062500 0.742188
v 0.226562 0.109375 0.781250
v -0.226562 0.109375 0.781250
v 0.179688 0.296875 0.781250
v -0.179688 0.296875 0.781250
v 0.210938 0.375000 0.781250
v -0.210938 0.375000 0.781250
v 0.234375 0.359375 0.757812
v -0.234375 0.359375 0.757812
v 0.195312 0.296875 0.757812
v -0.195312 0.296875 0.757812
v 0.242188 0.125000 0.757812
v -0.242188 0.125000 0.757812
v 0.375000 0.085938 0.726562
v -0.375000 0.085938 0.726562
v 0.460938 0.117188 0.703125
v -0.460938 0.117188 0.703125
v 0.546875 0.210938 0.671875
v -0.546875 0.210938 0.671875
v 0.554688 0.281250 0.671875
v -0.554688 0.281250 0.671875
v 0.531250 0.335938 0.679688
v -0.531250 0.335938 0.679688
v 0.414062 0.390625 0.750000
v -0.414062 0.390625 0.750000
v 0.281250 0.398438 0.765625
v -0.281250 0.398438 0.765625
v 0.335938 0.406250 0.750000
v -0.335938 0.406250 0.750000
v 0.203125 0.171875 0.750000
v -0.203125 0.171875 0.750000
v 0.195312 0.226562 0.750000
v -0.195312 0.226562 0.750000
v 0.109375 0.460938 0.609375
v -0.109375 0.460938 0.609375
v 0.195312 0.664062 0.617188
v -0.195312 0.664062 0.617188
v 0.335938 0.687500 0.593750
v -0.335938 0.687500 0.593750
v 0.484375 0.554688 0.554688
v -0.484375 0.554688 0.554688
v 0.679688 0.453125 0.492188
v -0.679688 0.453125 0.492188
v 0.796875 0.406250 0.460938
v -0.796875 0.406250 0.460938
v 0.773438 0.164062 0.375000
v -0.773438 0.164062 0.375000
v 0.601562 0.000000 0.414062
v -0.601562 0.000000 0.414062
v 0.437500 -0.093750 0.468750
v -0.437500 -0.093750 0.468750
v 0.000000 0.898438 0.289062
v 0.000000 0.984375 -0.078125
v 0.000000 -0.195312 -0.671875
v 0.000000 -0.460938 0.187500
v 0.000000 -0.976562 0.460938
v 0.000000 -0.804688 0.343750
v 0.000000 -0.570312 0.320312
v 0.000000 -0.484375 0.281250
v 0.851562 0.234375 0.054688
v -0.851562 0.234375 0.054688
v 0.859375 0.320312 -0.046875
v -0.859375 0.320312 -0.046875
v 0.773438 0.265625 -0.437500
v -0.773438 0.265625 -0.437500
v 0.460938 0.437500 -0.703125
v -0.460938 0.437500 -0.703125
v 0.734375 -0.046875 0.070312
v -0.734375 -0.046875 0.070312
v 0.593750 -0.125000 -0.164062
v -0.593750 -0.125000 -0.164062
v 0.640625 -0.007812 -0.429688
v -0.640625 -0.007812 -0.429688
v 0.335938 0.054688 -0.664062
v -0.335938 0.054688 -0.664062
v 0.234375 -0.351562 0.406250
v -0.234375 -0.351562 0.406250
v 0.179688 -0.414062 0.257812
v -0.179688 -0.414062 0.257812
v 0.289062 -0.710938 0.382812
v -0.289062 -0.710938 0.382812
v 0.250000 -0.500000 0.390625
v -0.250000 -0.500000 0.390625
v 0.328125 -0.914062 0.398438
v -0.328125 -0.914062 0.398438
v 0.140625 -0.757812 0.367188
v -0.140625 -0.757812 0.367188
v 0.125000 -0.539062 0.359375
v -0.125000 -0.539062 0.359375
v 0.164062 -0.945312 0.437500
v -0.164062 -0.945312 0.437500
v 0.218750 -0.281250 0.429688
v -0.218750 -0.281250 0.429688
v 0.210938 -0.226562 0.468750
v -0.210938 -0.226562 0.468750
v 0.203125 -0.171875 0.500000
v -0.203125 -0.171875 0.500000
v 0.210938 -0.390625 0.164062
v -0.210938 -0.390625 0.164062
v 0.296875 -0.312500 -0.265625
v -0.296875 -0.312500 -0.265625
v 0.343750 -0.148438 -0.539062
v -0.343750 -0.148438 -0.539062
v 0.453125 0.867188 -0.382812
v -0.453125 0.867188 -0.382812
v 0.453125 0.929688 -0.070312
v -0.453125 0.929688 -0.070312
v 0.453125 0.851562 0.234375
v -0.453125 0.851562 0.234375
v 0.460938 0.523438 0.429688
v -0.460938 0.523438 0.429688
v 0.726562 0.406250 0.335938
v -0.726562 0.406250 0.335938
v 0.632812 0.453125 0.281250
v -0.632812 0.453125 0.281250
v 0.640625 0.703125 0.054688
v -0.640625 0.703125 0.054688
v 0.796875 0.562500 0.125000
v -0.796875 0.562500 0.125000
v 0.796875 0.617188 -0.117188
v -0.796875 0.617188 -0.117188
v 0.640625 0.750000 -0.195312
v -0.640625 0.750000 -0.195312
v 0.640625 0.679688 -0.445312
v -0.640625 0.679688 -0.445312
v 0.796875 0.539062 -0.359375
v -0.796875 0.539062 -0.359375
v 0.617188 0.328125 -0.585938
v -0.617188 0.328125 -0.585938
v 0.484375 0.023438 -0.546875
v -0.484375 0.023438 -0.546875
v 0.820312 0.328125 -0.203125
v -0.820312 0.328125 -0.203125
v 0.406250 -0.171875 0.148438
v -0.406250 -0.171875 0.148438
v 0.429688 -0.195312 -0.210938
v -0.429688 -0.195312 -0.210938
v 0.890625 0.406250 -0.234375
v -0.890625 0.406250 -0.234375
v 0.773438 -0.140625 -0.125000
v -0.773438 -0.140625 -0.125000
v 1.039062 -0.101562 -0.328125
v -1.039062 -0.101562 -0.328125
v 1.281250 0.054688 -0.429688
v -1.281250 0.054688 -0.429688
v 1.351562 0.320312 -0.421875
v -1.351562 0.320312 -0.421875
v 1.234375 0.507812 -0.421875
v -1.234375 0.507812 -0.421875
v 1.023438 0.476562 -0.312500
v -1.023438 0.476562 -0.312500
v 1.015625 0.414062 -0.289062
v -1.015625 0.414062 -0.289062
v 1.187500 0.437500 -0.390625
v -1.187500 0.437500 -0.390625
v 1.265625 0.289062 -0.406250
v -1.265625 0.289062 -0.406250
v 1.210938 0.078125 -0.406250
v -1.210938 0.078125 -0.406250
v 1.031250 -0.039062 -0.304688
v -1.031250 -0.039062 -0.304688
v 0.828125 -0.070312 -0.132812
v -0.828125 -0.070312 -0.132812
v 0.921875 0.359375 -0.218750
v -0.921875 0.359375 -0.218750
v 0.945312 0.304688 -0.289062
v -0.945312 0.304688 -0.289062
v 0.882812 -0.023438 -0.210938
v -0.882812 -0.023438 -0.210938
v 1.039062 0.000000 -0.367188
v -1.039062 0.000000 -0.367188
v 1.187500 0.093750 -0.445312
v -1.187500 0.093750 -0.445312
v 1.234375 0.250000 -0.445312
v -1.234375 0.250000 -0.445312
v 1.171875 0.359375 -0.437500
v -1.171875 0.359375 -0.437500
v 1.023438 0.343750 -0.359375
v -1.023438 0.343750 -0.359375
v 0.843750 0.289062 -0.210938
v -0.843750 0.289062 -0.210938
v 0.835938 0.171875 -0.273438
v -0.835938 0.171875 -0.273438
v 0.757812 0.093750 -0.273438
v -0.757812 0.093750 -0.273438
v 0.820312 0.085938 -0.273438
v -0.820312 0.085938 -0.273438
v 0.843750 0.015625 -0.273438
v -0.843750 0.015625 -0.273438
v 0.812500 -0.015625 -0.273438
v -0.812500 -0.015625 -0.273438
v 0.726562 0.000000 -0.070312
v -0.726562 0.000000 -0.070312
v 0.718750 -0.023438 -0.171875
v -0.718750 -0.023438 -0.171875
v 0.718750 0.039062 -0.187500
v -0.718750 0.039062 -0.187500
v 0.796875 0.203125 -0.210938
v -0.796875 0.203125 -0.210938
v 0.890625 0.242188 -0.265625
v -0.890625 0.242188 -0.265625
v 0.890625 0.234375 -0.320312
v -0.890625 0.234375 -0.320312
v 0.812500 -0.015625 -0.320312
v -0.812500 -0.015625 -0.320312
v 0.851562 0.015625 -0.320312
v -0.851562 0.015625 -0.320312
v 0.828125 0.078125 -0.320312
v -0.828125 0.078125 -0.320312
v 0.765625 0.093750 -0.320312
v -0.765625 0.093750 -0.320312
v 0.843750 0.171875 -0.320312
v -0.843750 0.171875 -0.320312
v 1.039062 0.328125 -0.414062
v -1.039062 0.328125 -0.414062
v 1.187500 0.343750 -0.484375
v -1.187500 0.343750 -0.484375
v 1.257812 0.242188 -0.492188
v -1.257812 0.242188 -0.492188
v 1.210938 0.085938 -0.484375
v -1.210938 0.085938 -0.484375
v 1.046875 0.000000 -0.421875
v -1.046875 0.000000 -0.421875
v 0.882812 -0.015625 -0.265625
v -0.882812 -0.015625 -0.265625
v 0.953125 0.289062 -0.343750
v -0.953125 0.289062 -0.343750
v 0.890625 0.109375 -0.328125
v -0.890625 0.109375 -0.328125
v 0.937500 0.062500 -0.335938
v -0.937500 0.062500 -0.335938
v 1.000000 0.125000 -0.367188
v -1.000000 0.125000 -0.367188
v 0.960938 0.171875 -0.351562
v -0.960938 0.171875 -0.351562
v 1.015625 0.234375 -0.375000
v -1.015625 0.234375 -0.375000
v 1.054688 0.187500 -0.382812
v -1.054688 0.187500 -0.382812
v 1.109375 0.210938 -0.390625
v -1.109375 0.210938 -0.390625
v 1.085938 0.273438 -0.390625
v -1.085938 0.273438 -0.390625
v 1.023438 0.437500 -0.484375
v -1.023438 0.437500 -0.484375
v 1.250000 0.468750 -0.546875
v -1.250000 0.468750 -0.546875
v 1.367188 0.296875 -0.500000
v -1.367188 0.296875 -0.500000
v 1.312500 0.054688 -0.531250
v -1.312500 0.054688 -0.531250
v 1.039062 -0.085938 -0.492188
v -1.039062 -0.085938 -0.492188
v 0.789062 -0.125000 -0.328125
v -0.789062 -0.125000 -0.328125
v 0.859375 0.382812 -0.382812
v -0.859375 0.382812 -0.382812
s off
f 47 1 3
f 4 2 48
f 45 3 5
f 6 4 46
f 3 9 7
f 8 10 4
f 1 11 9
f 10 12 2
f 11 13 15
f 16 14 12
f 9 15 17
f 18 16 10
f 21 19 17
f 22 16 18
f 13 23 21
f 22 24 14
f 23 25 27
f 28 26 24
f 27 29 19
f 28 22 20
f 33 31 29
f 34 28 30
f 35 33 27
f 36 26 28
f 37 39 33
f 38 36 34
f 39 41 31
f 40 34 32
f 45 43 41
f 46 40 42
f 47 45 39
f 48 38 40
f 37 51 49
f 38 48 50
f 35 53 51
f 36 38 52
f 25 55 53
f 26 36 54
f 23 57 55
f 24 26 56
f 23 13 59
f 60 14 24
f 13 11 63
f 64 12 14
f 11 1 65
f 66 2 12
f 1 47 49
f 50 48 2
f 61 65 49
f 50 66 62
f 63 65 61
f 62 66 64
f 61 59 63
f 64 60 62
f 61 57 59
f 60 58 62
f 61 55 57
f 58 56 62
f 61 53 55
f 56 54 62
f 61 51 53
f 54 52 62
f 61 49 51
f 52 50 62
f 174 176 91
f 175 90 91
f 172 174 89
f 173 88 90
f 85 170 172
f 173 171 86
f 83 168 170
f 171 169 84
f 81 166 168
f 169 167 82
f 79 92 146
f 147 93 80
f 94 148 146
f 95 93 147
f 94 96 150
f 151 97 95
f 98 152 150
f 99 97 151
f 100 154 152
f 101 99 153
f 102 156 154
f 103 101 155
f 102 104 158
f 159 105 103
f 106 160 158
f 107 105 159
f 108 162 160
f 109 107 161
f 67 68 162
f 67 109 163
f 128 160 162
f 129 111 163
f 128 179 158
f 159 180 129
f 156 158 179
f 157 127 180
f 154 156 126
f 155 125 127
f 152 154 124
f 153 123 125
f 150 152 122
f 151 121 123
f 148 150 120
f 149 119 121
f 146 148 118
f 147 117 119
f 164 146 116
f 165 115 117
f 114 181 177
f 177 182 115
f 162 68 112
f 163 111 113
f 112 68 178
f 178 68 113
f 181 183 178
f 182 177 178
f 135 137 176
f 176 137 136
f 133 135 174
f 175 136 134
f 133 172 170
f 134 132 171
f 166 187 185
f 186 188 167
f 131 170 168
f 169 171 132
f 190 189 187
f 190 145 188
f 187 189 69
f 188 186 69
f 131 185 69
f 132 130 69
f 142 193 191
f 192 194 143
f 140 195 193
f 194 196 141
f 197 195 140
f 198 139 141
f 71 197 139
f 71 138 139
f 144 191 70
f 145 190 70
f 191 206 208
f 192 70 208
f 71 199 200
f 201 199 71
f 197 200 202
f 203 201 198
f 202 204 193
f 203 196 194
f 193 204 206
f 207 205 194
f 204 202 200
f 205 199 201
f 199 208 206
f 207 208 199
f 139 140 164
f 165 141 139
f 140 142 211
f 212 143 141
f 144 213 211
f 145 143 212
f 187 166 213
f 188 145 214
f 209 213 166
f 210 82 167
f 215 211 213
f 216 210 214
f 79 164 211
f 212 165 80
f 130 72 222
f 130 132 223
f 133 131 222
f 223 132 134
f 135 133 220
f 221 134 136
f 137 135 218
f 219 136 137
f 218 229 231
f 219 217 231
f 218 220 227
f 228 221 219
f 220 222 225
f 226 223 221
f 72 224 225
f 72 223 226
f 224 231 229
f 230 231 224
f 225 229 227
f 228 230 226
f 183 181 234
f 235 182 184
f 112 183 232
f 233 184 113
f 112 254 256
f 113 111 257
f 114 252 234
f 115 182 235
f 114 116 250
f 251 117 115
f 116 118 248
f 249 119 117
f 118 120 246
f 247 121 119
f 120 122 244
f 245 123 121
f 124 242 244
f 125 123 245
f 126 240 242
f 127 125 243
f 126 179 236
f 237 180 127
f 179 128 238
f 239 129 180
f 128 110 256
f 257 111 129
f 256 258 276
f 257 239 277
f 236 238 276
f 277 239 237
f 236 278 274
f 237 241 275
f 240 274 272
f 241 243 273
f 244 242 272
f 273 243 245
f 244 270 268
f 245 247 269
f 248 246 268
f 269 247 249
f 248 266 264
f 249 251 265
f 250 264 262
f 251 253 263
f 234 252 262
f 263 253 235
f 256 254 260
f 261 255 257
f 254 232 282
f 283 233 255
f 232 234 280
f 281 235 233
f 67 108 284
f 285 109 67
f 108 106 286
f 287 107 109
f 104 288 286
f 105 107 287
f 102 290 288
f 103 105 289
f 100 292 290
f 101 103 291
f 100 98 294
f 295 99 101
f 96 296 294
f 97 99 295
f 96 94 298
f 299 95 97
f 94 92 300
f 301 93 95
f 309 328 338
f 309 308 339
f 308 338 336
f 308 307 337
f 307 336 340
f 307 306 341
f 89 91 306
f 306 91 90
f 87 89 340
f 341 90 88
f 85 87 334
f 335 88 86
f 83 85 330
f 331 86 84
f 330 336 338
f 339 337 331
f 334 340 336
f 335 331 337
f 332 338 328
f 333 327 329
f 81 83 332
f 333 84 82
f 342 344 215
f 343 210 216
f 326 342 209
f 327 82 210
f 215 344 346
f 216 80 347
f 346 300 92
f 347 80 93
f 324 352 304
f 325 77 304
f 352 350 78
f 353 304 78
f 78 350 348
f 349 351 78
f 305 348 328
f 329 349 305
f 328 348 342
f 329 327 343
f 296 298 318
f 319 299 297
f 316 324 77
f 317 76 77
f 358 356 303
f 359 302 303
f 303 356 354
f 355 357 303
f 75 354 316
f 317 355 75
f 292 294 362
f 363 295 293
f 364 362 368
f 369 363 365
f 366 368 370
f 371 369 367
f 372 370 376
f 377 371 373
f 378 374 376
f 379 315 377
f 316 354 374
f 375 355 317
f 354 356 372
f 373 357 355
f 356 358 366
f 367 359 357
f 358 360 364
f 365 361 359
f 292 364 360
f 293 291 361
f 360 358 302
f 361 74 302
f 284 286 288
f 289 287 285
f 284 290 360
f 361 291 285
f 73 284 74
f 74 285 73
f 296 310 362
f 297 295 363
f 310 312 368
f 369 313 311
f 312 382 370
f 371 383 313
f 376 370 382
f 377 315 383
f 350 386 384
f 351 349 385
f 384 386 320
f 385 319 321
f 298 300 384
f 385 301 299
f 300 344 342
f 343 345 301
f 342 348 384
f 385 349 343
f 300 346 344
f 345 347 301
f 322 380 378
f 323 315 379
f 378 380 324
f 379 317 325
f 386 380 322
f 387 321 323
f 352 380 386
f 353 351 387
f 324 380 352
f 353 381 325
f 388 414 402
f 389 401 403
f 400 402 404
f 405 403 401
f 404 406 396
f 405 399 397
f 406 408 394
f 407 397 395
f 408 410 392
f 409 395 393
f 392 410 412
f 413 411 393
f 410 420 418
f 419 421 411
f 408 422 420
f 421 423 409
f 424 422 408
f 425 407 409
f 426 424 406
f 427 405 407
f 428 426 404
f 429 403 405
f 402 414 416
f 417 415 403
f 320 444 442
f 321 319 443
f 390 412 444
f 391 321 445
f 310 318 442
f 443 319 311
f 382 430 414
f 415 431 383
f 412 418 440
f 441 419 413
f 446 444 440
f 447 439 441
f 434 446 438
f 439 447 435
f 448 446 434
f 449 433 435
f 448 432 450
f 449 431 451
f 430 450 416
f 431 415 417
f 312 448 430
f 431 449 313
f 442 446 448
f 443 313 449
f 442 444 446
f 447 445 443
f 416 450 452
f 453 451 417
f 432 462 452
f 433 451 453
f 432 434 460
f 461 435 433
f 436 458 460
f 437 435 461
f 438 456 458
f 439 437 459
f 438 440 454
f 455 441 439
f 440 418 474
f 475 419 441
f 428 416 476
f 477 417 429
f 426 428 464
f 465 429 427
f 424 426 466
f 467 427 425
f 424 468 470
f 425 423 471
f 422 470 472
f 423 421 473
f 420 472 474
f 421 419 475
f 456 480 478
f 457 459 479
f 480 482 484
f 481 479 485
f 484 482 488
f 489 483 485
f 488 490 492
f 489 487 493
f 464 476 486
f 487 477 465
f 484 486 476
f 485 453 477
f 462 478 484
f 463 453 485
f 458 478 462
f 463 479 459
f 474 480 456
f 475 455 457
f 472 482 480
f 481 483 473
f 488 482 472
f 489 471 473
f 490 488 470
f 491 469 471
f 466 492 490
f 491 493 467
f 464 492 466
f 467 493 465
f 392 390 504
f 505 391 393
f 394 392 502
f 503 393 395
f 394 500 498
f 395 397 499
f 396 498 496
f 397 399 497
f 398 496 494
f 399 401 495
f 400 494 506
f 401 389 507
f 502 504 506
f 503 495 507
f 494 496 500
f 501 497 495
f 496 498 500
f 501 499 497
f 382 388 506
f 383 315 507
f 314 506 504
f 505 507 315
f 320 322 504
f 505 323 321
f 45 47 3
f 46 4 48
f 43 45 5
f 44 6 46
f 5 3 7
f 6 8 4
f 3 1 9
f 4 10 2
f 9 11 15
f 10 16 12
f 7 9 17
f 8 18 10
f 15 21 17
f 20 22 18
f 15 13 21
f 16 22 14
f 21 23 27
f 22 28 24
f 21 27 19
f 30 28 20
f 27 33 29
f 32 34 30
f 25 35 27
f 34 36 28
f 35 37 33
f 40 38 34
f 33 39 31
f 42 40 32
f 39 45 41
f 44 46 42
f 37 47 39
f 46 48 40
f 47 37 49
f 52 38 50
f 37 35 51
f 54 36 52
f 35 25 53
f 56 26 54
f 25 23 55
f 58 24 56
f 57 23 59
f 58 60 24
f 59 13 63
f 60 64 14
f 63 11 65
f 64 66 12
f 65 1 49
f 66 50 2
f 89 174 91
f 176 175 91
f 87 172 89
f 175 173 90
f 87 85 172
f 88 173 86
f 85 83 170
f 86 171 84
f 83 81 168
f 84 169 82
f 164 79 146
f 165 147 80
f 92 94 146
f 149 95 147
f 148 94 150
f 149 151 95
f 96 98 150
f 153 99 151
f 98 100 152
f 155 101 153
f 100 102 154
f 157 103 155
f 156 102 158
f 157 159 103
f 104 106 158
f 161 107 159
f 106 108 160
f 163 109 161
f 108 67 162
f 68 67 163
f 110 128 162
f 161 129 163
f 160 128 158
f 161 159 129
f 126 156 179
f 159 157 180
f 124 154 126
f 157 155 127
f 122 152 124
f 155 153 125
f 120 150 122
f 153 151 123
f 118 148 120
f 151 149 121
f 116 146 118
f 149 147 119
f 114 164 116
f 147 165 117
f 164 114 177
f 165 177 115
f 110 162 112
f 68 163 113
f 183 112 178
f 184 178 113
f 177 181 178
f 184 182 178
f 174 135 176
f 175 176 136
f 172 133 174
f 173 175 134
f 131 133 170
f 173 134 171
f 168 166 185
f 169 186 167
f 185 131 168
f 186 169 132
f 144 190 187
f 189 190 188
f 185 187 69
f 189 188 69
f 130 131 69
f 186 132 69
f 144 142 191
f 145 192 143
f 142 140 193
f 143 194 141
f 139 197 140
f 196 198 141
f 138 71 139
f 198 71 139
f 190 144 70
f 192 145 70
f 70 191 208
f 207 192 208
f 197 71 200
f 198 201 71
f 195 197 202
f 196 203 198
f 195 202 193
f 205 203 194
f 191 193 206
f 192 207 194
f 199 204 200
f 203 205 201
f 204 199 206
f 205 207 199
f 177 139 164
f 177 165 139
f 164 140 211
f 165 212 141
f 142 144 211
f 214 145 212
f 144 187 213
f 167 188 214
f 81 209 166
f 214 210 167
f 209 215 213
f 212 216 214
f 215 79 211
f 216 212 80
f 131 130 222
f 72 130 223
f 220 133 222
f 221 223 134
f 218 135 220
f 219 221 136
f 217 137 218
f 217 219 137
f 217 218 231
f 230 219 231
f 229 218 227
f 230 228 219
f 227 220 225
f 228 226 221
f 222 72 225
f 224 72 226
f 225 224 229
f 226 230 224
f 232 183 234
f 233 235 184
f 254 112 232
f 255 233 113
f 110 112 256
f 255 113 257
f 181 114 234
f 253 115 235
f 252 114 250
f 253 251 115
f 250 116 248
f 251 249 117
f 248 118 246
f 249 247 119
f 246 120 244
f 247 245 121
f 122 124 244
f 243 125 245
f 124 126 242
f 241 127 243
f 240 126 236
f 241 237 127
f 236 179 238
f 237 239 180
f 238 128 256
f 239 257 129
f 238 256 276
f 259 257 277
f 278 236 276
f 279 277 237
f 240 236 274
f 279 237 275
f 242 240 272
f 275 241 273
f 270 244 272
f 271 273 245
f 246 244 268
f 271 245 269
f 266 248 268
f 267 269 249
f 250 248 264
f 267 249 265
f 252 250 262
f 265 251 263
f 280 234 262
f 281 263 235
f 258 256 260
f 259 261 257
f 260 254 282
f 261 283 255
f 282 232 280
f 283 281 233
f 73 67 284
f 73 285 67
f 284 108 286
f 285 287 109
f 106 104 286
f 289 105 287
f 104 102 288
f 291 103 289
f 102 100 290
f 293 101 291
f 292 100 294
f 293 295 101
f 98 96 294
f 297 97 295
f 296 96 298
f 297 299 97
f 298 94 300
f 299 301 95
f 308 309 338
f 329 309 339
f 307 308 336
f 339 308 337
f 306 307 340
f 337 307 341
f 340 89 306
f 341 306 90
f 334 87 340
f 335 341 88
f 330 85 334
f 331 335 86
f 332 83 330
f 333 331 84
f 332 330 338
f 333 339 331
f 330 334 336
f 341 335 337
f 326 332 328
f 339 333 329
f 326 81 332
f 327 333 82
f 209 342 215
f 345 343 216
f 81 326 209
f 343 327 210
f 79 215 346
f 345 216 347
f 79 346 92
f 301 347 93
f 77 324 304
f 353 325 304
f 304 352 78
f 351 353 78
f 305 78 348
f 305 349 78
f 309 305 328
f 309 329 305
f 326 328 342
f 349 329 343
f 310 296 318
f 311 319 297
f 76 316 77
f 325 317 77
f 302 358 303
f 357 359 303
f 75 303 354
f 75 355 303
f 76 75 316
f 76 317 75
f 364 292 362
f 365 363 293
f 366 364 368
f 367 369 365
f 372 366 370
f 373 371 367
f 374 372 376
f 375 377 373
f 314 378 376
f 375 379 377
f 378 316 374
f 379 375 317
f 374 354 372
f 375 373 355
f 372 356 366
f 373 367 357
f 366 358 364
f 367 365 359
f 290 292 360
f 365 293 361
f 74 360 302
f 359 361 302
f 290 284 288
f 291 289 285
f 74 284 360
f 74 361 285
f 294 296 362
f 311 297 363
f 362 310 368
f 363 369 311
f 368 312 370
f 369 371 313
f 314 376 382
f 371 377 383
f 348 350 384
f 387 351 385
f 318 384 320
f 387 385 321
f 318 298 384
f 319 385 299
f 384 300 342
f 385 343 301
f 314 322 378
f 381 323 379
f 316 378 324
f 381 379 325
f 320 386 322
f 381 387 323
f 350 352 386
f 381 353 387
f 400 388 402
f 415 389 403
f 398 400 404
f 399 405 401
f 398 404 396
f 407 405 397
f 396 406 394
f 409 407 395
f 394 408 392
f 411 409 393
f 390 392 412
f 391 413 393
f 412 410 418
f 413 419 411
f 410 408 420
f 411 421 409
f 406 424 408
f 423 425 409
f 404 426 406
f 425 427 407
f 402 428 404
f 427 429 405
f 428 402 416
f 429 417 403
f 318 320 442
f 445 321 443
f 320 390 444
f 413 391 445
f 312 310 442
f 313 443 311
f 388 382 414
f 389 415 383
f 444 412 440
f 445 441 413
f 438 446 440
f 445 447 441
f 436 434 438
f 437 439 435
f 432 448 434
f 447 449 435
f 430 448 450
f 433 449 451
f 414 430 416
f 451 431 417
f 382 312 430
f 383 431 313
f 312 442 448
f 447 443 449
f 476 416 452
f 477 453 417
f 450 432 452
f 463 433 453
f 462 432 460
f 463 461 433
f 434 436 460
f 459 437 461
f 436 438 458
f 457 439 459
f 456 438 454
f 457 455 439
f 454 440 474
f 455 475 441
f 464 428 476
f 465 477 429
f 466 426 464
f 467 465 427
f 468 424 466
f 469 467 425
f 422 424 470
f 469 425 471
f 420 422 472
f 471 423 473
f 418 420 474
f 473 421 475
f 458 456 478
f 481 457 479
f 478 480 484
f 483 481 485
f 486 484 488
f 487 489 485
f 486 488 492
f 491 489 493
f 492 464 486
f 493 487 465
f 452 484 476
f 487 485 477
f 452 462 484
f 479 463 485
f 460 458 462
f 461 463 459
f 454 474 456
f 481 475 457
f 474 472 480
f 475 481 473
f 470 488 472
f 483 489 473
f 468 490 470
f 489 491 471
f 468 466 490
f 469 491 467
f 502 392 504
f 503 505 393
f 500 394 502
f 501 503 395
f 396 394 498
f 501 395 499
f 398 396 496
f 499 397 497
f 400 398 494
f 497 399 495
f 388 400 506
f 495 401 507
f 494 502 506
f 505 503 507
f 502 494 500
f 503 501 495
f 314 382 506
f 389 383 507
f 322 314 504
f 323 505 315
f 390 320 504
f 391 505 321
